/* XPM */
static char * del_net_xpm[] = {
"24 24 33 1",
" 	c None",
".	c #C61098",
"+	c #C41096",
"@	c #CC119C",
"#	c #CB119B",
"$	c #830B64",
"%	c #AA0E82",
"&	c #DE12AA",
"*	c #930C70",
"=	c #BC0F8F",
"-	c #840B65",
";	c #CF119E",
">	c #ED13B5",
",	c #68084F",
"'	c #000000",
")	c #3A042C",
"!	c #E913B2",
"~	c #A00D7A",
"{	c #A03232",
"]	c #D73737",
"^	c #D43434",
"/	c #C42828",
"(	c #C32727",
"_	c #C22626",
":	c #B60606",
"<	c #FE0000",
"[	c #FF0000",
"}	c #640505",
"|	c #820606",
"1	c #810606",
"2	c #860B0B",
"3	c #111111",
"4	c #131313",
"                        ",
"                        ",
"                        ",
"      .           +     ",
"      @           #     ",
"      @           #     ",
"      @           #     ",
"  $$$%&$$*=-$$$$$%&$$$  ",
"  +++++++++;>+++++++++, ",
"   '''''''')!'''''''''' ",
"            !           ",
"            !           ",
"            ~           ",
"                        ",
"  {]]]]]]^/(((_         ",
"  :<[[[[<<<<<<[         ",
"  }|11111111112         ",
"  344444444444          ",
"                        ",
"                        ",
"                        ",
"                        ",
"                        ",
"                        "};
