/* XPM */
static char * host_list_xpm[] = {
"24 24 118 2",
"  	c None",
". 	c #FEFEFE",
"+ 	c #FFFFFF",
"@ 	c #C7C7DE",
"# 	c #E8E8F0",
"$ 	c #FDFDFD",
"% 	c #BABAC8",
"& 	c #2828C1",
"* 	c #7575CF",
"= 	c #ECECEE",
"- 	c #49499E",
"; 	c #0000EF",
"> 	c #0505F9",
", 	c #C5C5E5",
"' 	c #A7A7AC",
") 	c #020252",
"! 	c #000093",
"~ 	c #12129D",
"{ 	c #9494C9",
"] 	c #E7E7E7",
"^ 	c #D7D7D7",
"/ 	c #D5D5D5",
"( 	c #D6D6D6",
"_ 	c #D8D8D8",
": 	c #A3A3A5",
"< 	c #70707B",
"[ 	c #676779",
"} 	c #7C7C89",
"| 	c #E1E1E6",
"1 	c #C0C0C0",
"2 	c #B8B8B8",
"3 	c #BCBCBC",
"4 	c #BABABA",
"5 	c #B9B9B9",
"6 	c #BBBBBB",
"7 	c #B7B7B7",
"8 	c #E5E5E5",
"9 	c #D8D8E0",
"0 	c #4343CF",
"a 	c #8B8BD0",
"b 	c #F9F9F9",
"c 	c #F2F2F3",
"d 	c #6666A4",
"e 	c #0000D9",
"f 	c #1D1DE3",
"g 	c #DEDEE7",
"h 	c #C5C5CD",
"i 	c #0D0D88",
"j 	c #0000EC",
"k 	c #0606F0",
"l 	c #7575D1",
"m 	c #F0F0F0",
"n 	c #ECECEC",
"o 	c #EAEAEA",
"p 	c #E9E9E9",
"q 	c #EBEBEB",
"r 	c #7F7F80",
"s 	c #2A2A39",
"t 	c #212137",
"u 	c #3B3B4C",
"v 	c #DDDDE5",
"w 	c #CCCCCC",
"x 	c #D6D6D9",
"y 	c #7373C1",
"z 	c #ABABCE",
"A 	c #F7F7F7",
"B 	c #E0E0E0",
"C 	c #FBFBFB",
"D 	c #9292BC",
"E 	c #0D0DD2",
"F 	c #3434E1",
"G 	c #DDDDE2",
"H 	c #1A1A80",
"I 	c #0000EB",
"J 	c #0505F0",
"K 	c #8F8FD1",
"L 	c #F8F8F8",
"M 	c #F3F3F3",
"N 	c #F4F4F4",
"O 	c #F5F5F5",
"P 	c #8B8B8E",
"Q 	c #232344",
"R 	c #22224F",
"S 	c #3B3B64",
"T 	c #B5B5E0",
"U 	c #C8C8C8",
"V 	c #B4B4B4",
"W 	c #B5B5B5",
"X 	c #B6B6B6",
"Y 	c #B1B1B1",
"Z 	c #CECECE",
"` 	c #6D6DA9",
" .	c #9A9AAE",
"..	c #DDDDDD",
"+.	c #DCDCDC",
"@.	c #DBDBDB",
"#.	c #DEDEDE",
"$.	c #FAFAFA",
"%.	c #B8B8D0",
"&.	c #1A1AC1",
"*.	c #5454CE",
"=.	c #E0E0E2",
"-.	c #2A2A85",
";.	c #0000F1",
">.	c #0707F6",
",.	c #B6B6CC",
"'.	c #9C9CA1",
").	c #04044E",
"!.	c #040487",
"~.	c #18189B",
"{.	c #9B9BDD",
"].	c #C3C3C3",
"^.	c #BDBDBD",
"/.	c #9A9A9A",
"(.	c #A1A1A2",
"_.	c #B0B0B3",
":.	c #F1F1F3",
"<.	c #FCFCFC",
". . . . + + + + . . . . . . + + + + + + + + + + ",
". . . . + + + + . . . . . . + + + + + + + + + + ",
". . . . + @ # + . . . . . . + + + + + + + + + + ",
". . . $ % & * $ . . . . . . + + + + + + + + + + ",
". . . = - ; > , . . . . . . + + + + + + + + + + ",
". . . ' ) ! ~ { ] ^ / ( ( / ^ ( / ^ / / _ + + + ",
". + . : < [ } | 1 2 3 4 4 3 4 4 3 5 6 7 8 + + + ",
". . . . 9 0 a $ b b b b b b b b b b b b . + + + ",
". . . c d e f g . . . . . . + + + + + + + + + + ",
". . . h i j k l m ] n o o n p o n p q q o + + + ",
". + . r s t u v w 6 3 6 6 3 6 6 3 6 3 3 ^ + + + ",
"+ . . n x y z A B B B B B B B B B B B B C + + + ",
". . . b D E F C . . . . . . + + + + + + + + + + ",
". . . G H I J K L M N N N N N N N N N M O + + + ",
"+ . + P Q R S T U V W X V X W X W W X Y w + + + ",
". . . Z 2 `  .O ..+.@...@.#.@...+.@...@.$.+ + + ",
"+ . . . %.&.*.+ . . . . . . + + + + + + + + + + ",
". + . =.-.;.>.,.$.O O O O O O O O O O O O + + + ",
". + . '.).!.~.{./ ].].].].].].].].].].]./ + + + ",
". . . ^./.(._.:._ / / / / / / / / / / / M + + + ",
". + . <.<.$ . . C C C C C C C C C C C C . + + + ",
". . . . + + + + . . . . . . + + + + + + + + + + ",
"+ + + . + + + + . . . . . . + + + + + + + + + + ",
". + . . + + + + . . . . . . + + + + + + + + + + "};
