/* XPM */
static char * node_notification_xpm[] = {
"20 20 140 2",
"  	c None",
". 	c #ABACAC",
"+ 	c #ACADAD",
"@ 	c #AAABAB",
"# 	c #BCBDBD",
"$ 	c #B8B9B9",
"% 	c #B0B2B2",
"& 	c #969897",
"* 	c #E3E3E3",
"= 	c #F5F5F5",
"- 	c #EDEEED",
"; 	c #E6E7E7",
"> 	c #DFE0E0",
", 	c #D8D9D9",
"' 	c #D0D1D1",
") 	c #C9CACA",
"! 	c #C1C3C3",
"~ 	c #BABCBC",
"{ 	c #B2B4B4",
"] 	c #959797",
"^ 	c #8B8C8C",
"/ 	c #515252",
"( 	c #ECECEC",
"_ 	c #DDDDDD",
": 	c #CCCDCC",
"< 	c #CACCCB",
"[ 	c #CDCFCE",
"} 	c #C8CAC9",
"| 	c #BFC1C0",
"1 	c #B9BBBA",
"2 	c #B2B4B3",
"3 	c #9D9E9E",
"4 	c #777978",
"5 	c #868888",
"6 	c #7F8281",
"7 	c #5E5050",
"8 	c #5E5B5B",
"9 	c #E4E4E4",
"0 	c #DADBDB",
"a 	c #C8C9C9",
"b 	c #B6B7B7",
"c 	c #A5A6A6",
"d 	c #A0A1A1",
"e 	c #AAACAC",
"f 	c #A6A9A8",
"g 	c #6C6E6D",
"h 	c #696B6A",
"i 	c #7F8181",
"j 	c #8E8685",
"k 	c #A76969",
"l 	c #A9AAAA",
"m 	c #D7D8D8",
"n 	c #CECFCF",
"o 	c #C2C4C4",
"p 	c #B3B5B5",
"q 	c #979999",
"r 	c #7A7B7B",
"s 	c #747575",
"t 	c #727373",
"u 	c #636464",
"v 	c #6D6F6E",
"w 	c #717373",
"x 	c #A77676",
"y 	c #7C4D4C",
"z 	c #090808",
"A 	c #CFD1D0",
"B 	c #C0C2C1",
"C 	c #B8BAB9",
"D 	c #949695",
"E 	c #7C7E7D",
"F 	c #7A7C7B",
"G 	c #757676",
"H 	c #747675",
"I 	c #767878",
"J 	c #907878",
"K 	c #A25E5E",
"L 	c #473A3A",
"M 	c #222323",
"N 	c #B1B3B2",
"O 	c #8B8D8D",
"P 	c #7E8080",
"Q 	c #7D807F",
"R 	c #7A7C7C",
"S 	c #797C7B",
"T 	c #857C7B",
"U 	c #B57A79",
"V 	c #623C3C",
"W 	c #3D403F",
"X 	c #393B3B",
"Y 	c #818282",
"Z 	c #B8BABA",
"` 	c #B1B3B3",
" .	c #A8AAAA",
"..	c #858786",
"+.	c #818383",
"@.	c #7E8180",
"#.	c #7A7D7D",
"$.	c #7C7D7C",
"%.	c #B18888",
"&.	c #904E4E",
"*.	c #302E2E",
"=.	c #1A1B1B",
"-.	c #020303",
";.	c #AAACAB",
">.	c #9D9F9F",
",.	c #838685",
"'.	c #818484",
").	c #9C8080",
"!.	c #A96464",
"~.	c #3E2323",
"{.	c #030303",
"].	c #010101",
"^.	c #9C9E9D",
"/.	c #A2A5A4",
"(.	c #919493",
"_.	c #818483",
":.	c #8B8181",
"<.	c #BF8E8E",
"[.	c #6D4343",
"}.	c #030101",
"|.	c #000000",
"1.	c #5F6060",
"2.	c #9B9D9D",
"3.	c #898B8B",
"4.	c #7D8180",
"5.	c #757877",
"6.	c #A57F7F",
"7.	c #864343",
"8.	c #100707",
"9.	c #000100",
"0.	c #8E9191",
"a.	c #7A7D7C",
"b.	c #595C5B",
"c.	c #423333",
"d.	c #965858",
"e.	c #1A0B0B",
"f.	c #313232",
"g.	c #733F3F",
"h.	c #321818",
"i.	c #311818",
"                                        ",
"                                        ",
"                                        ",
"                                        ",
"              . + @ . # $ % &           ",
"    * = - ; > , ' ) ! ~ { ] ^ /         ",
"      ( _ : < [ } | 1 2 3 4 5 6 7 8     ",
"      9 0 a b @ c d e f g h i j k       ",
"      l m n o p q r s t u v w x y z     ",
"        A a B C D E F G H I J K L M     ",
"        # B 1 N O P Q R S T U V W X     ",
"        Y Z `  ...+.@.#.$.%.&.*.=.-.    ",
"          N ;.>.,.,.'.@.).!.~.{.].].    ",
"          ^./.(.+._.@.:.<.[.}.|.].      ",
"          1.2.3.@.4.5.6.7.8.9.          ",
"            0.'.a.b.c.d.e.|.            ",
"            h 5.f.{.g.h.                ",
"                    i.                  ",
"                                        ",
"                                        "};
