/* XPM */
static char * node_unknown_xpm[] = {
"20 20 59 1",
" 	c None",
".	c #1C160A",
"+	c #2E2410",
"@	c #1E170A",
"#	c #8C7547",
"$	c #E0C58D",
"%	c #E7C070",
"&	c #D1AD65",
"*	c #836A38",
"=	c #181308",
"-	c #857146",
";	c #E9C887",
">	c #634E24",
",	c #44371E",
"'	c #D0A54F",
")	c #E7BD67",
"!	c #856A35",
"~	c #020202",
"{	c #DBBA76",
"]	c #7A6335",
"^	c #171B23",
"/	c #705C35",
"(	c #ECC067",
"_	c #AC8841",
":	c #000000",
"<	c #231C0E",
"[	c #D1A958",
"}	c #4A3A1A",
"|	c #78643B",
"1	c #E0B968",
"2	c #755D2B",
"3	c #101010",
"4	c #171717",
"5	c #1F2020",
"6	c #CFAD67",
"7	c #C29E52",
"8	c #866F3F",
"9	c #DBB973",
"0	c #614E29",
"a	c #080808",
"b	c #251D0D",
"c	c #CCAA65",
"d	c #AD8F56",
"e	c #0D0B07",
"f	c #322813",
"g	c #D5B167",
"h	c #796133",
"i	c #202020",
"j	c #17140B",
"k	c #62512F",
"l	c #2B2B2A",
"m	c #322A19",
"n	c #CCAF74",
"o	c #463719",
"p	c #3C3320",
"q	c #DFB96A",
"r	c #49391A",
"s	c #332814",
"t	c #0B0904",
"                    ",
"                    ",
"                    ",
"        .+@         ",
"       #$%&*=       ",
"      -;>,')!~      ",
"      {]^ /(_:      ",
"     <[}  |123      ",
"      45  67.       ",
"         890a       ",
"        bcde        ",
"        fghi        ",
"        jk.         ",
"         l          ",
"        mno         ",
"        pqr         ",
"         st         ",
"                    ",
"                    ",
"                    "};
