/* XPM */
static char * server_node_xpm[] = {
"42 60 68 1",
" 	c None",
".	c #000000",
"+	c #565656",
"@	c #D2D2D2",
"#	c #AFAFAF",
"$	c #686868",
"%	c #FDFDFD",
"&	c #FEFEFE",
"*	c #FFFFFF",
"=	c #D5D5D5",
"-	c #DBDBDB",
";	c #CDCDCD",
">	c #ABABAB",
",	c #B1B1B1",
"'	c #E3E3E3",
")	c #BDBDBD",
"!	c #A9A9A9",
"~	c #B8B8B8",
"{	c #999999",
"]	c #B5B5B5",
"^	c #C1C1C1",
"/	c #979797",
"(	c #F0F0F0",
"_	c #BBBBBB",
":	c #B7B7B7",
"<	c #ECECEC",
"[	c #DADADA",
"}	c #969696",
"|	c #B2B2B2",
"1	c #DDDDDD",
"2	c #959595",
"3	c #BEBEBE",
"4	c #F5F5F5",
"5	c #CFCFCF",
"6	c #F2F2F2",
"7	c #DFDFDF",
"8	c #8A8A8A",
"9	c #919191",
"0	c #929292",
"a	c #C9C9C9",
"b	c #B0B0B0",
"c	c #B6B6B6",
"d	c #E5E5E5",
"e	c #9D9D9D",
"f	c #A1A1A1",
"g	c #F1F1F1",
"h	c #C6C6C6",
"i	c #C7C7C7",
"j	c #EAEAEA",
"k	c #8F8F8F",
"l	c #A4A4A4",
"m	c #A5A5A5",
"n	c #BABABA",
"o	c #D9D9D9",
"p	c #9F9F9F",
"q	c #F7F7F7",
"r	c #D6D6D6",
"s	c #F6F6F6",
"t	c #DEDEDE",
"u	c #A0A0A0",
"v	c #C4C4C4",
"w	c #F9F9F9",
"x	c #E7E7E7",
"y	c #595959",
"z	c #D8D8D8",
"A	c #0D0D0D",
"B	c #202020",
"C	c #1A1A1A",
"                                          ",
"                                          ",
"   ....................................   ",
"  +@@@@@@@@@@@@@@@@@@@@@@@@@@@@@@@@@@@#.  ",
"  $%&&%%%&&*******&&*&&&&&&&&&&&&&&&&&=.  ",
"  $%&&%%%&&*******&&*&&&&&&&&&&&&&&&&&=.  ",
"  $%&&%%%&&******-;;;;;;;;;;;;;;;;;;;;>.  ",
"  $%&&%%%&&******,'''''''''''''''''''').  ",
"  $%&&%%%&&******!~~~~~~~~~~~~~~~~~~~~{.  ",
"  $%&&%%%&&******]&&*&&&&&&&&&&&&&&&&&=.  ",
"  $&&&%%%&&******^]]]]]]]]]]]]]]]]]]]]/.  ",
"  $%&&%%%&&*******&&*&&&&&&&&&&&&&&&&&=.  ",
"  $%&&%%%&&*******&&*&&&&&&&&&&&&&&&&&=.  ",
"  $%&&%%%&&*******&&*&&&&&&&&&&&&&&&&&=.  ",
"  $%&&%%%&&*******&&*&&&&&&&&&&&&&&&&&=.  ",
"  $%&&%%%&&*******&&*&&&&&&&&&&&&&&&&&=.  ",
"  $%&&%%%&&*******&&*&&&&&&&&&&&&&&&&&=.  ",
"  $%&&%%%&&*******&&*&&&&&&&&&&&&&&&&&=.  ",
"  $&&&%%%&&*******&&*&&&&&&&&&&&&&&&&&=.  ",
"  $%&&%%%&&*******&&*&&&&&&&&&&&&&&&&&=.  ",
"  $%&&%%%&&*******&&*&&&&&&&&&&&&&&&&&=.  ",
"  $&&&%%%&&*******&&*&&&&&&&&&&&&&&&&&=.  ",
"  $%&&%%%&&*******&&*&&&&&&&&&&&&&&&&&=.  ",
"  $%&&%(_::::::::::::::::::::::::<&&&&=.  ",
"  $%&&%[},,|||||||,,|,,,,,,,,,,,,]&&&&=.  ",
"  $&&&%[},,|||||||,,|,,,,,,,,,,,,]&&&&=.  ",
"  $%&&%[},,|||||||,,|,,,,,,,,,,,,]&&&&=.  ",
"  $%&&%[},,|||||||,,|,,,,,,,,,,,,]&&&&=.  ",
"  $%&&%12!!!!!!!!!!!!!!!!!!!!!!!!3&&&&=.  ",
"  $%&&%4@5555555555555555555555556&&&&=.  ",
"  $&&&%%%&&*******&&*&&&&&&&&&&&&&&&&&=.  ",
"  $%&&%%%&&*******&&*&&&&&&&&&&&&&&&&&=.  ",
"  $%&&%%%&&*******&&*&&&&&&&&&&&&&&&&&=.  ",
"  $%&&%78900000000000000000000000a&&&&=.  ",
"  $&&&%[},,|||||||,,|,,,,,,,,,,,,]&&&&=.  ",
"  $%&&%[},,|||||||,,|,,,,,,,,,,,,]&&&&=.  ",
"  $&&&%[},,|||||||,,|,,,,,,,,,,,,]&&&&=.  ",
"  $%&&%[2#bbbbbbbb#bbbbbbbbbbbbbbc&&&&=.  ",
"  $%&&%deffffffffffffffffffffffff=&&&&=.  ",
"  $&&&%%%&&&&&&&&&&&&&&&&&&&&&&&&&&&&&=.  ",
"  $&&&%%%&&*******&&*&&&&&&&&&&&&&&&&&=.  ",
"  $%&&%%%&&*******&&*&&&&&&&&&&&&&&&&&=.  ",
"  $&&&%ghhiiiiiiiihhiiiiiiiiiiiiij&&&&=.  ",
"  $%&&%-klmmmmmmmmmmmmmmmmmmmmmmmn&&&&=.  ",
"  $%&&%[},,|||||||,,|,,,,,,,,,,,,]&&&&=.  ",
"  $%&&%[},,|||||||,,|,,,,,,,,,,,,]&&&&=.  ",
"  $%&&%[},,|||||||,,|,,,,,,,,,,,,]&&&&=.  ",
"  $%&&%o8pppppppppppppppppppppppp~&&&&=.  ",
"  $%&&%q[rrrrrrrrrrrrrrrrrrrrrrrrs&&&&=.  ",
"  $%&&%%%&&*******&&*&&&&&&&&&&&&&&&&&=.  ",
"  $%&&%j!!!!!!!!!!!!!!!!!!!!!!!!!7&&&&=.  ",
"  $%&&%[/,||||||||,,|||||||||||||]&&&&=.  ",
"  $%&&%[/,,|||||||,,|,,,,,,,,,,,,]&&&&=.  ",
"  $%&&%[},,|||||||,,|,,,,,,,,,,,,]&&&&=.  ",
"  $%&&%[},,|||||||,,|,,,,,,,,,,,,]&&&&=.  ",
"  $%&&%t0uffffffffuufffffffffffffv&&&&=.  ",
"  $%&&%wxddddddddddddddddddddddddw&&&&=.  ",
"  yzzozzzooooooooooooooooooooooooooooo].  ",
"  ABBBBBBBBBBBBBBBBBBBBBBBBBBBBBBBBBBBC   ",
"                                          "};
